[
    {
        "type": "article-journal",
        "author": "Autor des Beitrags",
        "editor": "Herausgeber",
        "container-title-short": "Abk\u00fcrzung Zeitschrift",
        "language": "Sprache",
        "page": "Seiten",
        "container-title": "Name der Zeitschrift",
        "title": "Beitragstitel",
        "volume": "Jahrgang und Ausgabe"
    },
    {
        "type": "entry-encyclopedia",
        "author": "Autor Beitrag",
        "editor": "Begr\u00fcnder & Herausgeber",
        "issued": {
            "literal": "Erscheinungsdatum"
        },
        "edition": "Auflage",
        "container-title": "Buchtitel ",
        "container-title-short": "Abk\u00fcrzung Buchtitel",
        "note": "Paragraph /Artikel",
        "ISBN": "ISBN",
        "language": "Sprache",
        "page": "Seiten",
        "publisher-place": "Verlagsort",
        "publisher": "Verlag",
        "title-short": "Abk\u00fcrzung Beitragstitel",
        "title": "Beitragstitel"
    },
    {
        "type": "legal_case",
        "authority": "Gericht",
        "author": "Senat",
        "issued": {
            "literal": "Entscheidungsdatum"
        },
        "number": "Aktenzeichen",
        "container-title": "Zeitschrift / Fundstelle",
        "volume": "Jahrgang und Ausgabe der Zeitschrift"
    },
    {
        "type": "book",
        "author": "Autor",
        "editor": "Editor / Hrsg.",
        "issued": {
            "literal": "Erscheinungsdatum"
        },
        "edition": "Auflage",
        "publisher-place": "Verlagsort",
        "publisher": "Verlag",
        "title-short": "Abk\u00fcrzung Titel",
        "title": "Titel"
    },
    {
        "type": "chapter",
        "abstract": "Abstract",
        "container-title": "Buchtitel",
        "author": "Autor des Beitrags",
        "container-author": "Autor des Buches",
        "editor": "Herausgeber",
        "collection-editor": "Begr\u00fcnder",
        "issued": {
            "literal": "Erscheinungsdatum"
        },
        "edition": "Auflage",
        "page": "Seiten",
        "publisher-place": "Verlagsort",
        "publisher": "Verlag",
        "collection-title": "Name der Reihe",
        "collection-number": "Band innerhalb einer Reihe",
        "title-short": "Abk\u00fcrzung Beitragstitel",
        "title": "Beitragstitel"
    },
    {
        "type": "paper-conference",
        "author": "Autor des Beitrags",
        "collection-editor": "Editor",
        "issued": {
            "literal": "Datum Ver\u00f6ffentlichung"
        },
        "note": "Anlass der Festschrift",
        "language": "Sprache",
        "page": "Seiten",
        "container-title": "Name der Festschrift",
        "container-title-short": "Abk\u00fcrzung Festschrift Titel",
        "publisher-place": "Ort der Institution",
        "publisher": "Name der Institution",
        "title": "Beitragstitel"
    },
    {
        "type": "thesis",
        "author": "Autor",
        "issued": {
            "literal": "Erscheinungsdatum"
        },
        "publisher-place": "Ort der Institution",
        "title-short": "Kurztitel",
        "title": "Titel",
        "publisher": "Institution / Universit\u00e4t"
    },
    {
        "type": "article-newspaper",
        "author": "Autor",
        "issued": {
            "literal": "Datum"
        },
        "page": "Seiten",
        "publisher-place": "Verlagsort",
        "container-title": "Name der Zeitung",
        "section": "Abschnitt",
        "title": "Titel des Artikels"
    },
    {
        "type": "bill",
        "container-title": "Drucksache",
        "issued": {
            "literal": "Datum Ver\u00f6ffentlichung"
        },
        "note": "\u00c4nderung / Entwurf",
        "references": "Fundstelle",
        "title": "Gesetzestitel"
    }
]